Date;Disclosure;QTY
2020-12-31;How many requests resulted in the disclosure to the U.S. government of enterprise content data located outside the United States? ;0
2021-06-30;How many requests resulted in the disclosure to the U.S. government of enterprise content data located outside the United States? ;0
2021-12-31;How many requests resulted in the disclosure to the U.S. government of enterprise content data located outside the United States? ;0
2022-06-30;How many requests resulted in the disclosure to the U.S. government of enterprise content data located outside the United States? ;0
2022-12-31;How many requests resulted in the disclosure to the U.S. government of enterprise content data located outside the United States? ;0
2023-06-30;How many requests resulted in the disclosure to the U.S. government of enterprise content data located outside the United States? ;0
2023-12-31;How many requests resulted in the disclosure to the U.S. government of enterprise content data located outside the United States? ;0
2024-06-30;How many requests resulted in the disclosure to the U.S. government of enterprise content data located outside the United States? ;0
2024-12-31;How many requests resulted in the disclosure to the U.S. government of enterprise content data located outside the United States? ;0